%YAML 1.1
%TAG !u! tag:unity3d.com,2011:
--- !u!1045 &1
EditorBuildSettings:
  m_ObjectHideFlags: 0
  serializedVersion: 2
  m_Scenes:
  - enabled: 1
    path: Assets/Scenes/SampleScene.unity
    guid: 9fc0d4010bbf28b4594072e72b8655ab
  m_configObjects:
    UnityEditor.XR.ARCore.ARCoreSettings: {fileID: 11400000, guid: 66ce6027d1d8a2f4c94a7e5a2e471752, type: 2}
    com.unity.xr.management.loader_settings: {fileID: 11400000, guid: 8b86e73a6a205e64cb3eba97ffbec53a, type: 2}
